Procesando datos con el paquete tidyverse
…
count: false
 
# Otra forma de selecionar
.panel1-select_1-auto[

```r
*b_eph_ind
```
]
 
.panel2-select_1-auto[

```
# A tibble: 57,229 × 177
   CODUSU      ANO4 TRIME…¹ NRO_H…² COMPO…³   H15 REGION MAS_500 AGLOM…⁴ PONDERA
   <fct>      <int>   <int>   <int>   <int> <int>  <int> <fct>     <int>   <int>
 1 TQRMNOQXY…  2019       3       1       1     1     43 S             2     547
 2 TQRMNOQXY…  2019       3       1       2     1     43 S             2     547
 3 TQRMNOQXY…  2019       3       1       3     1     43 S             2     547
 4 TQRMNOQXY…  2019       3       1       4     1     43 S             2     547
 5 TQRMNOQST…  2019       3       1       2     1     43 S             2     584
 6 TQRMNOQST…  2019       3       1       3     0     43 S             2     584
 7 TQRMNOQST…  2019       3       1       4     0     43 S             2     584
 8 TQRMNOQST…  2019       3       1       5     0     43 S             2     584
 9 TQRMNOSRQ…  2019       3       1       1     1     43 S             2     584
10 TQRMNOSRQ…  2019       3       1       2     1     43 S             2     584
# … with 57,219 more rows, 167 more variables: CH03 <int>, CH04 <int>,
#   CH05 <fct>, CH06 <int>, CH07 <int>, CH08 <int>, CH09 <int>, CH10 <int>,
#   CH11 <int>, CH12 <int>, CH13 <int>, CH14 <chr>, CH15 <int>, CH15_COD <int>,
#   CH16 <int>, CH16_COD <int>, NIVEL_ED <int>, ESTADO <int>, CAT_OCUP <int>,
#   CAT_INAC <int>, IMPUTA <int>, PP02C1 <int>, PP02C2 <int>, PP02C3 <int>,
#   PP02C4 <int>, PP02C5 <int>, PP02C6 <int>, PP02C7 <int>, PP02C8 <int>,
#   PP02E <int>, PP02H <int>, PP02I <int>, PP03C <int>, PP03D <int>, …
```
…
# Otra forma de selecionar
.panel1-select_1-auto[

```r
b_eph_ind %>%
* select(12:16)
```
]
 
.panel2-select_1-auto[

```
# A tibble: 57,229 × 5
    CH04 CH05        CH06  CH07  CH08
   <int> <fct>      <int> <int> <int>
 1     1 12/04/1963    56     2     1
 2     2 24/09/1972    46     2     1
 3     2 14/09/1998    20     1     1
 4     1 11/04/2007    12     5     1
 5     2 03/03/1981    38     2     4
 6     2 17/12/2011     7     5     4
 7     1 10/12/2013     5     5     4
 8     1 27/02/2016     3     5     4
 9     1 15/07/1965    54     3     4
10     1 19/08/2000    19     5     4
# … with 57,219 more rows
```
…
count: false
 
# Otra forma de selecionar
.panel1-select_2-auto[

```r
*b_eph_ind
```
]
 
.panel2-select_2-auto[

```
# A tibble: 57,229 × 177
   CODUSU      ANO4 TRIME…¹ NRO_H…² COMPO…³   H15 REGION MAS_500 AGLOM…⁴ PONDERA
   <fct>      <int>   <int>   <int>   <int> <int>  <int> <fct>     <int>   <int>
 1 TQRMNOQXY…  2019       3       1       1     1     43 S             2     547
 2 TQRMNOQXY…  2019       3       1       2     1     43 S             2     547
 3 TQRMNOQXY…  2019       3       1       3     1     43 S             2     547
 4 TQRMNOQXY…  2019       3       1       4     1     43 S             2     547
 5 TQRMNOQST…  2019       3       1       2     1     43 S             2     584
 6 TQRMNOQST…  2019       3       1       3     0     43 S             2     584
 7 TQRMNOQST…  2019       3       1       4     0     43 S             2     584
 8 TQRMNOQST…  2019       3       1       5     0     43 S             2     584
 9 TQRMNOSRQ…  2019       3       1       1     1     43 S             2     584
10 TQRMNOSRQ…  2019       3       1       2     1     43 S             2     584
# … with 57,219 more rows, 167 more variables: CH03 <int>, CH04 <int>,
#   CH05 <fct>, CH06 <int>, CH07 <int>, CH08 <int>, CH09 <int>, CH10 <int>,
#   CH11 <int>, CH12 <int>, CH13 <int>, CH14 <chr>, CH15 <int>, CH15_COD <int>,
#   CH16 <int>, CH16_COD <int>, NIVEL_ED <int>, ESTADO <int>, CAT_OCUP <int>,
#   CAT_INAC <int>, IMPUTA <int>, PP02C1 <int>, PP02C2 <int>, PP02C3 <int>,
#   PP02C4 <int>, PP02C5 <int>, PP02C6 <int>, PP02C7 <int>, PP02C8 <int>,
#   PP02E <int>, PP02H <int>, PP02I <int>, PP03C <int>, PP03D <int>, …
```
…
# Otra forma de selecionar
.panel1-select_2-auto[

```r
b_eph_ind %>%
* select(CH03:CH10)
```
]
 
.panel2-select_2-auto[

```
# A tibble: 57,229 × 8
    CH03  CH04 CH05        CH06  CH07  CH08  CH09  CH10
   <int> <int> <fct>      <int> <int> <int> <int> <int>
 1     1     1 12/04/1963    56     2     1     1     2
 2     2     2 24/09/1972    46     2     1     1     2
 3     3     2 14/09/1998    20     1     1     1     2
 4     3     1 11/04/2007    12     5     1     1     1
 5     2     2 03/03/1981    38     2     4     1     2
 6     3     2 17/12/2011     7     5     4     1     1
 7     3     1 10/12/2013     5     5     4     2     1
 8     3     1 27/02/2016     3     5     4     2     1
 9     1     1 15/07/1965    54     3     4     1     2
10     3     1 19/08/2000    19     5     4     1     1
# … with 57,219 more rows
```
…
count: false
 
# Otra forma de selecionar
.panel1-select_3-auto[

```r
*b_eph_ind
```
]
 
.panel2-select_3-auto[

```
# A tibble: 57,229 × 177
   CODUSU      ANO4 TRIME…¹ NRO_H…² COMPO…³   H15 REGION MAS_500 AGLOM…⁴ PONDERA
   <fct>      <int>   <int>   <int>   <int> <int>  <int> <fct>     <int>   <int>
 1 TQRMNOQXY…  2019       3       1       1     1     43 S             2     547
 2 TQRMNOQXY…  2019       3       1       2     1     43 S             2     547
 3 TQRMNOQXY…  2019       3       1       3     1     43 S             2     547
 4 TQRMNOQXY…  2019       3       1       4     1     43 S             2     547
 5 TQRMNOQST…  2019       3       1       2     1     43 S             2     584
 6 TQRMNOQST…  2019       3       1       3     0     43 S             2     584
 7 TQRMNOQST…  2019       3       1       4     0     43 S             2     584
 8 TQRMNOQST…  2019       3       1       5     0     43 S             2     584
 9 TQRMNOSRQ…  2019       3       1       1     1     43 S             2     584
10 TQRMNOSRQ…  2019       3       1       2     1     43 S             2     584
# … with 57,219 more rows, 167 more variables: CH03 <int>, CH04 <int>,
#   CH05 <fct>, CH06 <int>, CH07 <int>, CH08 <int>, CH09 <int>, CH10 <int>,
#   CH11 <int>, CH12 <int>, CH13 <int>, CH14 <chr>, CH15 <int>, CH15_COD <int>,
#   CH16 <int>, CH16_COD <int>, NIVEL_ED <int>, ESTADO <int>, CAT_OCUP <int>,
#   CAT_INAC <int>, IMPUTA <int>, PP02C1 <int>, PP02C2 <int>, PP02C3 <int>,
#   PP02C4 <int>, PP02C5 <int>, PP02C6 <int>, PP02C7 <int>, PP02C8 <int>,
#   PP02E <int>, PP02H <int>, PP02I <int>, PP03C <int>, PP03D <int>, …
```
…
# Otra forma de selecionar
.panel1-select_3-auto[

```r
b_eph_ind %>%
* select(starts_with("CH"))
```
]
 
.panel2-select_3-auto[

```
# A tibble: 57,229 × 16
    CH03  CH04 CH05   CH06  CH07  CH08  CH09  CH10  CH11  CH12  CH13 CH14   CH15
   <int> <int> <fct> <int> <int> <int> <int> <int> <int> <int> <int> <chr> <int>
 1     1     1 12/0…    56     2     1     1     2     0     4     1 <NA>      1
 2     2     2 24/0…    46     2     1     1     2     0     4     2 3         1
 3     3     2 14/0…    20     1     1     1     2     0     7     2 1         1
 4     3     1 11/0…    12     5     1     1     1     2     4     2 0         1
 5     2     2 03/0…    38     2     4     1     2     0     4     2 2         4
 6     3     2 17/1…     7     5     4     1     1     1     2     2 1         1
 7     3     1 10/1…     5     5     4     2     1     1     1     2 4         1
 8     3     1 27/0…     3     5     4     2     1     1     1     2 0         1
 9     1     1 15/0…    54     3     4     1     2     0     2     1 <NA>      3
10     3     1 19/0…    19     5     4     1     1     1     4     2 5         1
# … with 57,219 more rows, and 3 more variables: CH15_COD <int>, CH16 <int>,
#   CH16_COD <int>
```
…
count: false
 
# Otra forma de selecionar
.panel1-select_4-auto[

```r
*b_eph_ind
```
]
 
.panel2-select_4-auto[

```
# A tibble: 57,229 × 177
   CODUSU      ANO4 TRIME…¹ NRO_H…² COMPO…³   H15 REGION MAS_500 AGLOM…⁴ PONDERA
   <fct>      <int>   <int>   <int>   <int> <int>  <int> <fct>     <int>   <int>
 1 TQRMNOQXY…  2019       3       1       1     1     43 S             2     547
 2 TQRMNOQXY…  2019       3       1       2     1     43 S             2     547
 3 TQRMNOQXY…  2019       3       1       3     1     43 S             2     547
 4 TQRMNOQXY…  2019       3       1       4     1     43 S             2     547
 5 TQRMNOQST…  2019       3       1       2     1     43 S             2     584
 6 TQRMNOQST…  2019       3       1       3     0     43 S             2     584
 7 TQRMNOQST…  2019       3       1       4     0     43 S             2     584
 8 TQRMNOQST…  2019       3       1       5     0     43 S             2     584
 9 TQRMNOSRQ…  2019       3       1       1     1     43 S             2     584
10 TQRMNOSRQ…  2019       3       1       2     1     43 S             2     584
# … with 57,219 more rows, 167 more variables: CH03 <int>, CH04 <int>,
#   CH05 <fct>, CH06 <int>, CH07 <int>, CH08 <int>, CH09 <int>, CH10 <int>,
#   CH11 <int>, CH12 <int>, CH13 <int>, CH14 <chr>, CH15 <int>, CH15_COD <int>,
#   CH16 <int>, CH16_COD <int>, NIVEL_ED <int>, ESTADO <int>, CAT_OCUP <int>,
#   CAT_INAC <int>, IMPUTA <int>, PP02C1 <int>, PP02C2 <int>, PP02C3 <int>,
#   PP02C4 <int>, PP02C5 <int>, PP02C6 <int>, PP02C7 <int>, PP02C8 <int>,
#   PP02E <int>, PP02H <int>, PP02I <int>, PP03C <int>, PP03D <int>, …
```
…
# Otra forma de selecionar
.panel1-select_4-auto[

```r
b_eph_ind %>%
* select(ends_with("_COD"))
```
]
 
.panel2-select_4-auto[

```
# A tibble: 57,229 × 6
   CH15_COD CH16_COD PP04B_COD PP04D_COD PP11B_COD PP11D_COD
      <int>    <int> <chr>     <chr>     <chr>     <chr>    
 1       NA       NA 8401      34323     <NA>      <NA>     
 2       NA       NA 9700      55314     <NA>      <NA>     
 3       NA       NA 1009      20333     <NA>      <NA>     
 4       NA       NA <NA>      <NA>      <NA>      <NA>     
 5      202       NA 4803      30113     <NA>      <NA>     
 6       NA       NA <NA>      <NA>      <NA>      <NA>     
 7       NA       NA <NA>      <NA>      <NA>      <NA>     
 8       NA       NA <NA>      <NA>      <NA>      <NA>     
 9       22       NA 1009      30113     <NA>      <NA>     
10       NA       NA 1009      30314     <NA>      <NA>     
# … with 57,219 more rows
```
…
count: false
 
# Otra forma de selecionar
.panel1-select_5-auto[

```r
*b_eph_ind
```
]
 
.panel2-select_5-auto[

```
# A tibble: 57,229 × 177
   CODUSU      ANO4 TRIME…¹ NRO_H…² COMPO…³   H15 REGION MAS_500 AGLOM…⁴ PONDERA
   <fct>      <int>   <int>   <int>   <int> <int>  <int> <fct>     <int>   <int>
 1 TQRMNOQXY…  2019       3       1       1     1     43 S             2     547
 2 TQRMNOQXY…  2019       3       1       2     1     43 S             2     547
 3 TQRMNOQXY…  2019       3       1       3     1     43 S             2     547
 4 TQRMNOQXY…  2019       3       1       4     1     43 S             2     547
 5 TQRMNOQST…  2019       3       1       2     1     43 S             2     584
 6 TQRMNOQST…  2019       3       1       3     0     43 S             2     584
 7 TQRMNOQST…  2019       3       1       4     0     43 S             2     584
 8 TQRMNOQST…  2019       3       1       5     0     43 S             2     584
 9 TQRMNOSRQ…  2019       3       1       1     1     43 S             2     584
10 TQRMNOSRQ…  2019       3       1       2     1     43 S             2     584
# … with 57,219 more rows, 167 more variables: CH03 <int>, CH04 <int>,
#   CH05 <fct>, CH06 <int>, CH07 <int>, CH08 <int>, CH09 <int>, CH10 <int>,
#   CH11 <int>, CH12 <int>, CH13 <int>, CH14 <chr>, CH15 <int>, CH15_COD <int>,
#   CH16 <int>, CH16_COD <int>, NIVEL_ED <int>, ESTADO <int>, CAT_OCUP <int>,
#   CAT_INAC <int>, IMPUTA <int>, PP02C1 <int>, PP02C2 <int>, PP02C3 <int>,
#   PP02C4 <int>, PP02C5 <int>, PP02C6 <int>, PP02C7 <int>, PP02C8 <int>,
#   PP02E <int>, PP02H <int>, PP02I <int>, PP03C <int>, PP03D <int>, …
```
…
# Otra forma de selecionar
.panel1-select_5-auto[

```r
b_eph_ind %>%
* select(contains("03"))
```
]
 
.panel2-select_5-auto[

```
# A tibble: 57,229 × 7
    CH03 PP03C PP03D PP03G PP03H PP03I PP03J
   <int> <int> <int> <int> <int> <int> <int>
 1     1     0     0     2     0     2     2
 2     2     2     2     2     0     2     1
 3     3     1     0     1     1     1     1
 4     3    NA    NA    NA    NA    NA    NA
 5     2     1     0     2     0     2     2
 6     3    NA    NA    NA    NA    NA    NA
 7     3    NA    NA    NA    NA    NA    NA
 8     3    NA    NA    NA    NA    NA    NA
 9     1     1     0     2     0     2     2
10     3     1     0     2     0     2     2
# … with 57,219 more rows
```
…
count: false
 
# filter()
.panel1-filter-auto[

```r
*b_eph_ind
```
]
 
.panel2-filter-auto[

```
# A tibble: 57,229 × 177
   CODUSU      ANO4 TRIME…¹ NRO_H…² COMPO…³   H15 REGION MAS_500 AGLOM…⁴ PONDERA
   <fct>      <int>   <int>   <int>   <int> <int>  <int> <fct>     <int>   <int>
 1 TQRMNOQXY…  2019       3       1       1     1     43 S             2     547
 2 TQRMNOQXY…  2019       3       1       2     1     43 S             2     547
 3 TQRMNOQXY…  2019       3       1       3     1     43 S             2     547
 4 TQRMNOQXY…  2019       3       1       4     1     43 S             2     547
 5 TQRMNOQST…  2019       3       1       2     1     43 S             2     584
 6 TQRMNOQST…  2019       3       1       3     0     43 S             2     584
 7 TQRMNOQST…  2019       3       1       4     0     43 S             2     584
 8 TQRMNOQST…  2019       3       1       5     0     43 S             2     584
 9 TQRMNOSRQ…  2019       3       1       1     1     43 S             2     584
10 TQRMNOSRQ…  2019       3       1       2     1     43 S             2     584
# … with 57,219 more rows, 167 more variables: CH03 <int>, CH04 <int>,
#   CH05 <fct>, CH06 <int>, CH07 <int>, CH08 <int>, CH09 <int>, CH10 <int>,
#   CH11 <int>, CH12 <int>, CH13 <int>, CH14 <chr>, CH15 <int>, CH15_COD <int>,
#   CH16 <int>, CH16_COD <int>, NIVEL_ED <int>, ESTADO <int>, CAT_OCUP <int>,
#   CAT_INAC <int>, IMPUTA <int>, PP02C1 <int>, PP02C2 <int>, PP02C3 <int>,
#   PP02C4 <int>, PP02C5 <int>, PP02C6 <int>, PP02C7 <int>, PP02C8 <int>,
#   PP02E <int>, PP02H <int>, PP02I <int>, PP03C <int>, PP03D <int>, …
```
…
# filter()
.panel1-filter-auto[

```r
b_eph_ind %>%
* select(AGLOMERADO, CH04, CH06, ESTADO, PONDERA)
```
]
 
.panel2-filter-auto[

```
# A tibble: 57,229 × 5
   AGLOMERADO  CH04  CH06 ESTADO PONDERA
        <int> <int> <int>  <int>   <int>
 1          2     1    56      1     547
 2          2     2    46      1     547
 3          2     2    20      1     547
 4          2     1    12      3     547
 5          2     2    38      1     584
 6          2     2     7      4     584
 7          2     1     5      4     584
 8          2     1     3      4     584
 9          2     1    54      1     584
10          2     1    19      1     584
# … with 57,219 more rows
```
…
# filter()
.panel1-filter-auto[

```r
b_eph_ind %>%
  select(AGLOMERADO, CH04, CH06, ESTADO, PONDERA) %>%
* filter(CH06 >= 14)
```
]
 
.panel2-filter-auto[

```
# A tibble: 45,344 × 5
   AGLOMERADO  CH04  CH06 ESTADO PONDERA
        <int> <int> <int>  <int>   <int>
 1          2     1    56      1     547
 2          2     2    46      1     547
 3          2     2    20      1     547
 4          2     2    38      1     584
 5          2     1    54      1     584
 6          2     1    19      1     584
 7          2     2    44      1     815
 8          2     1    16      3     815
 9          2     1    31      1     815
10          2     1    58      1     563
# … with 45,334 more rows
```
…
count: false
 
#filter
.panel1-filter_1-auto[

```r
*b_eph_ind
```
]
 
.panel2-filter_1-auto[

```
# A tibble: 57,229 × 177
   CODUSU      ANO4 TRIME…¹ NRO_H…² COMPO…³   H15 REGION MAS_500 AGLOM…⁴ PONDERA
   <fct>      <int>   <int>   <int>   <int> <int>  <int> <fct>     <int>   <int>
 1 TQRMNOQXY…  2019       3       1       1     1     43 S             2     547
 2 TQRMNOQXY…  2019       3       1       2     1     43 S             2     547
 3 TQRMNOQXY…  2019       3       1       3     1     43 S             2     547
 4 TQRMNOQXY…  2019       3       1       4     1     43 S             2     547
 5 TQRMNOQST…  2019       3       1       2     1     43 S             2     584
 6 TQRMNOQST…  2019       3       1       3     0     43 S             2     584
 7 TQRMNOQST…  2019       3       1       4     0     43 S             2     584
 8 TQRMNOQST…  2019       3       1       5     0     43 S             2     584
 9 TQRMNOSRQ…  2019       3       1       1     1     43 S             2     584
10 TQRMNOSRQ…  2019       3       1       2     1     43 S             2     584
# … with 57,219 more rows, 167 more variables: CH03 <int>, CH04 <int>,
#   CH05 <fct>, CH06 <int>, CH07 <int>, CH08 <int>, CH09 <int>, CH10 <int>,
#   CH11 <int>, CH12 <int>, CH13 <int>, CH14 <chr>, CH15 <int>, CH15_COD <int>,
#   CH16 <int>, CH16_COD <int>, NIVEL_ED <int>, ESTADO <int>, CAT_OCUP <int>,
#   CAT_INAC <int>, IMPUTA <int>, PP02C1 <int>, PP02C2 <int>, PP02C3 <int>,
#   PP02C4 <int>, PP02C5 <int>, PP02C6 <int>, PP02C7 <int>, PP02C8 <int>,
#   PP02E <int>, PP02H <int>, PP02I <int>, PP03C <int>, PP03D <int>, …
```
…
#filter
.panel1-filter_1-auto[

```r
b_eph_ind %>%
* select(AGLOMERADO, CH04, CH06, ESTADO, PONDERA)
```
]
 
.panel2-filter_1-auto[

```
# A tibble: 57,229 × 5
   AGLOMERADO  CH04  CH06 ESTADO PONDERA
        <int> <int> <int>  <int>   <int>
 1          2     1    56      1     547
 2          2     2    46      1     547
 3          2     2    20      1     547
 4          2     1    12      3     547
 5          2     2    38      1     584
 6          2     2     7      4     584
 7          2     1     5      4     584
 8          2     1     3      4     584
 9          2     1    54      1     584
10          2     1    19      1     584
# … with 57,219 more rows
```
…
#filter
.panel1-filter_1-auto[

```r
b_eph_ind %>%
  select(AGLOMERADO, CH04, CH06, ESTADO, PONDERA) %>%
* filter(AGLOMERADO == 32 | AGLOMERADO == 33)
```
]
 
.panel2-filter_1-auto[

```
# A tibble: 10,097 × 5
   AGLOMERADO  CH04  CH06 ESTADO PONDERA
        <int> <int> <int>  <int>   <int>
 1         32     2    49      1    1031
 2         32     1     9      4    1031
 3         32     2    81      3    1031
 4         32     1    72      1    1234
 5         32     2    73      1    1234
 6         32     1    28      3    1234
 7         32     2    69      3     640
 8         32     2    87      3    1923
 9         32     1    40      1    2424
10         32     2    41      1    2424
# … with 10,087 more rows
```
…
